{
	"host" : "localhost",
	"port" : 80,
	"scheme" : "http://",
	"site" : "",
	"user" : "admin",
	"passwd" : "admin",
	"binfolder" : "C:\\Program Files\\Tableau\\Tableau Server\\9.0\\bin",
	"proxy" : "http://localhost:8888"
}